10	-19.7743797918	0.1	0.0216526217
30	-20.219907686	0.3	0.0204273059
100	-18.9769495511	1	0.020342225
300	-15.0519429182	3	0.0206536783
1000	-7.1804388528	10	0.0222466691
3000	-1.7591034071	30	0.0308333333
10000	-0.2008387659	100	0.0723039216
30000	-0.0500629031	300	0.1823147832
100000	-0.0503531244	1000	0.6163698844



